[
  {
    "name": "kibana",
    "image": "docker.elastic.co/kibana/kibana:6.0.0",
    "cpu": 1024,
    "memory": 2048,
    "networkMode":"awsvpc",

    "essential": true,
    "portMappings": [
        {
          "hostPort": 80,
          "protocol": "tcp",
          "containerPort": 5601
        }

      ],
    "environment": [
        {
          "name":"ELASTICSEARCH_URL",
          "value":"<ES-URL>"
        }
      ],
    "logConfiguration":{
            "logDriver":"awslogs",
            "options":{
               "awslogs-group":"/ecs/kibana",
               "awslogs-region":"us-east-2"
            }
         }
  }

  ]